DSD_LAB_E1/E1/simulation/qsim/1.msim.vcd
$comment
	File created using the following command:
		vcd file 1.msim.vcd -direction
$end
$date
	Mon Jul 08 22:59:42 2024
$end
$version
	ModelSim Version 10.1d
$end
$timescale
	1ps
$end
$scope module dividable11_vlg_vec_tst $end
$var reg 4 ! A0 [3:0] $end
$var reg 4 " A1 [3:0] $end
$var reg 4 # A2 [3:0] $end
$var reg 4 $ A3 [3:0] $end
$var wire 1 % ans $end
$var wire 1 & sampler $end
$scope module i1 $end
$var wire 1 ' gnd $end
$var wire 1 ( vcc $end
$var wire 1 ) unknown $end
$var tri1 1 * devclrn $end
$var tri1 1 + devpor $end
$var tri1 1 , devoe $end
$var wire 1 - ans~output_o $end
$var wire 1 . A2[3]~input_o $end
$var wire 1 / A0[3]~input_o $end
$var wire 1 0 inst21|inst3|inst1|inst2~0_combout $end
$var wire 1 1 A0[2]~input_o $end
$var wire 1 2 A2[1]~input_o $end
$var wire 1 3 A0[0]~input_o $end
$var wire 1 4 A2[0]~input_o $end
$var wire 1 5 A0[1]~input_o $end
$var wire 1 6 inst21|inst3|inst1|inst2~1_combout $end
$var wire 1 7 A2[2]~input_o $end
$var wire 1 8 inst21|inst3|inst1|inst2~2_combout $end
$var wire 1 9 inst2|inst6~2_combout $end
$var wire 1 : inst2|inst6~5_combout $end
$var wire 1 ; inst2|inst6~3_combout $end
$var wire 1 < inst2|inst4~1_combout $end
$var wire 1 = inst2|inst4~0_combout $end
$var wire 1 > inst2|inst4~2_combout $end
$var wire 1 ? inst21|inst3|inst2~0_combout $end
$var wire 1 @ inst21|inst3|inst2~1_combout $end
$var wire 1 A inst21|inst3|inst2~2_combout $end
$var wire 1 B inst2|inst4~3_combout $end
$var wire 1 C inst2|inst6~4_combout $end
$var wire 1 D inst78~0_combout $end
$var wire 1 E inst78~1_combout $end
$var wire 1 F A1[0]~input_o $end
$var wire 1 G A3[2]~input_o $end
$var wire 1 H A1[2]~input_o $end
$var wire 1 I A3[1]~input_o $end
$var wire 1 J A1[1]~input_o $end
$var wire 1 K A3[0]~input_o $end
$var wire 1 L inst20|inst1|inst2~0_combout $end
$var wire 1 M inst20|inst2|inst1|inst2~0_combout $end
$var wire 1 N inst20|inst3|inst2~0_combout $end
$var wire 1 O A1[3]~input_o $end
$var wire 1 P A3[3]~input_o $end
$var wire 1 Q inst20|inst3|inst2~1_combout $end
$var wire 1 R inst|inst1|inst1|inst~combout $end
$var wire 1 S inst20|inst3|inst1|inst2~0_combout $end
$var wire 1 T inst20|inst3|inst1|inst2~1_combout $end
$var wire 1 U inst20|inst3|inst1|inst2~2_combout $end
$var wire 1 V inst22~0_combout $end
$var wire 1 W inst1|inst4~1_combout $end
$var wire 1 X inst1|inst4~2_combout $end
$var wire 1 Y inst1|inst4~0_combout $end
$var wire 1 Z inst1|inst4~3_combout $end
$var wire 1 [ inst1|inst6~combout $end
$var wire 1 \ inst62~0_combout $end
$var wire 1 ] inst62~1_combout $end
$var wire 1 ^ inst4|inst2|inst1|inst~0_combout $end
$var wire 1 _ inst4|inst2|inst1|inst~1_combout $end
$var wire 1 ` inst21|inst2|inst1|inst2~0_combout $end
$var wire 1 a inst3|inst1|inst1|inst~combout $end
$var wire 1 b inst38~0_combout $end
$var wire 1 c inst4|inst|inst|inst~combout $end
$var wire 1 d inst4|inst5~0_combout $end
$var wire 1 e inst16|inst2|inst1|inst2~2_combout $end
$var wire 1 f inst16|inst2|inst1|inst2~3_combout $end
$var wire 1 g inst16|inst2|inst1|inst2~4_combout $end
$var wire 1 h inst42~0_combout $end
$var wire 1 i inst12|inst2|inst1|inst2~2_combout $end
$var wire 1 j inst12|inst2|inst1|inst2~3_combout $end
$var wire 1 k inst12|inst2|inst1|inst2~4_combout $end
$var wire 1 l inst26~0_combout $end
$var wire 1 m inst58~0_combout $end
$var wire 1 n inst4|inst|inst1|inst~combout $end
$var wire 1 o inst4|inst5~combout $end
$upscope $end
$upscope $end
$enddefinitions $end
#0
$dumpvars
b1 !
b11 "
b11 #
b1 $
1%
x&
0'
1(
x)
1*
1+
1,
1-
0.
0/
00
01
12
13
14
05
16
07
08
09
1:
1;
0<
1=
1>
1?
0@
0A
0B
1C
1D
0E
1F
0G
0H
0I
1J
1K
1L
1M
0N
0O
0P
0Q
0R
0S
1T
0U
0V
0W
1X
1Y
0Z
1[
1\
0]
1^
0_
1`
0a
0b
0c
0d
1e
1f
1g
1h
1i
1j
1k
1l
0m
0n
0o
$end
#120000
b1001 !
b1 #
b0 #
b101 $
b100 $
0K
1G
04
02
1/
0&
1_
0T
1R
0L
0k
1W
1U
1N
0M
0^
0?
06
0f
1E
0=
0;
10
1d
0U
0l
1V
0N
1M
1m
1Z
0X
0_
0`
18
0g
1o
1B
0V
1c
1l
0Z
0d
0h
1b
0-
0%
0c
1d
0d
#240000
b1101 !
b1100 !
b111 "
b100 #
b100 !
b101 #
b0 $
0G
14
17
1H
03
11
0/
1&
1@
08
00
0b
18
1c
1b
1d
0c
0d
#360000
b110 !
b1111 "
b1101 "
b10 $
b111 #
b111 !
b1001 "
b11 #
b10 #
04
12
07
1I
0J
0H
1O
13
15
0&
1?
0:
16
1f
1;
1g
1`
0@
19
08
0W
1k
0M
1S
0`
1@
0;
18
0g
1n
1h
0b
1Z
1X
0m
0l
1U
0h
1b
0Z
1V
0[
1d
0\
1]
#480000
b1010 #
b11 $
b111 $
b101 !
b1 "
b11 "
b1000 #
b100 !
b111 "
b1001 #
1J
1H
0O
03
05
1K
1G
14
02
1.
1&
0]
0Y
1W
1T
0R
1L
0U
1N
0S
0?
06
0f
1<
1;
1_
1\
1A
10
1U
0V
1M
1`
0@
1g
0B
0>
0d
1]
1h
0e
0_
1V
1[
1l
0h
0b
0A
0n
1B
1f
1d
1m
1c
0[
0d
1h
0f
1e
1b
1_
0B
0g
1d
0o
1g
0c
0C
1o
0D
1-
1%
0E
0-
0%
#600000
b110 "
b1101 #
b101 #
b101 !
b100 #
13
04
17
0.
0F
0&
1^
1:
0g
0`
1@
0<
09
08
00
0\
0X
0_
0;
0h
0b
1B
1>
1C
18
0]
1c
1D
1b
1E
0c
#720000
b110 $
b10 $
b111 !
b110 #
b10 #
b110 !
12
07
03
15
0K
0G
1&
1f
1?
1;
16
1g
1`
0@
0:
19
08
0e
0^
0D
0>
0i
1_
0k
0W
0M
0g
0`
1@
18
1n
1h
0b
0;
0_
0E
0d
1Z
0l
0n
0h
1b
1c
1d
1[
0c
0d
0o
1-
1%
#840000
b1010 $
b10 !
b1000 $
b100 "
b0 "
b1010 #
b1001 $
b0 !
b1000 #
b1 !
02
1.
0J
0H
13
05
01
1K
0I
1P
0&
0f
0?
1;
06
1A
10
0j
0T
0L
1k
0U
0N
1M
1e
1^
1D
1>
1:
1g
1`
0@
09
08
1i
1_
1\
1X
1S
1Q
0g
0`
18
0e
0_
0B
0k
1U
0M
0m
0Q
1E
0;
1n
0A
1d
1]
0Z
0i
0C
0d
1i
1Z
1o
1e
1B
0[
0n
0D
1m
1[
1C
0\
0-
0%
0o
0E
1\
1D
0]
1]
1E
1-
1%
#960000
b1 "
b1001 #
b1 $
b11 "
b1 #
b11 #
0P
14
12
0.
1F
1J
1&
0S
1?
16
1f
0E
1=
1;
00
1T
1L
1j
0]
1Y
0U
1`
08
1g
0B
1M
1k
0Z
0V
1h
0b
1n
1l
0m
0[
1[
0n
1o
1d
0d
0-
0%
0o
1-
1%
