DSD_LAB_E3/E3_part1/transcript
# Compile of OneBitComparator.v was successful.
# Compile of FourBitComparator.v was successful.
# Compile of tb.v was successful.
# 3 compiles, 0 failed with no errors.
# Compile of OneBitComparator.v was successful.
# Compile of FourBitComparator.v was successful.
# Compile of tb.v was successful.
# 3 compiles, 0 failed with no errors.
vsim -gui work.tb
# vsim -gui work.tb 
# Start time: 10:50:27 on Jul 15,2024
# Loading work.tb
# Loading work.FourBitComparator
# Loading work.OneBitComparator
# WARNING: No extended dataflow license exists
add wave -position insertpoint sim:/tb/*
run -all
# A = 0000, B = 0000, lt = 0, gt = 0, eq = 1
# A = 0001, B = 0000, lt = 0, gt = 1, eq = 0
# A = 0001, B = 0001, lt = 0, gt = 0, eq = 1
# A = 0010, B = 0001, lt = 1, gt = 0, eq = 0
# A = 0011, B = 0001, lt = 0, gt = 1, eq = 0
# A = 0100, B = 0001, lt = 1, gt = 0, eq = 0
# A = 0101, B = 0001, lt = 0, gt = 1, eq = 0
# A = 0110, B = 0001, lt = 1, gt = 0, eq = 0
# A = 0111, B = 0001, lt = 0, gt = 1, eq = 0
# A = 1000, B = 0001, lt = 1, gt = 0, eq = 0
# A = 1001, B = 0001, lt = 0, gt = 1, eq = 0
# A = 1010, B = 0001, lt = 1, gt = 0, eq = 0
# A = 1011, B = 0001, lt = 0, gt = 1, eq = 0
# A = 1100, B = 0001, lt = 1, gt = 0, eq = 0
# A = 1101, B = 0001, lt = 0, gt = 1, eq = 0
# A = 1110, B = 0001, lt = 1, gt = 0, eq = 0
# A = 1111, B = 0001, lt = 0, gt = 1, eq = 0
# A = 0000, B = 0001, lt = 1, gt = 0, eq = 0
# A = 0000, B = 0010, lt = 1, gt = 0, eq = 0
# A = 0000, B = 0011, lt = 1, gt = 0, eq = 0
# A = 0000, B = 0100, lt = 1, gt = 0, eq = 0
# A = 0000, B = 0101, lt = 1, gt = 0, eq = 0
# A = 0000, B = 0110, lt = 1, gt = 0, eq = 0
# A = 0000, B = 0111, lt = 1, gt = 0, eq = 0
# A = 0000, B = 1000, lt = 1, gt = 0, eq = 0
# A = 0000, B = 1001, lt = 1, gt = 0, eq = 0
# A = 0000, B = 1010, lt = 1, gt = 0, eq = 0
# A = 0000, B = 1011, lt = 1, gt = 0, eq = 0
# A = 0000, B = 1100, lt = 1, gt = 0, eq = 0
# A = 0000, B = 1101, lt = 1, gt = 0, eq = 0
# A = 0000, B = 1110, lt = 1, gt = 0, eq = 0
# A = 0000, B = 1111, lt = 1, gt = 0, eq = 0
# A = 0001, B = 0000, lt = 0, gt = 1, eq = 0
# A = 0010, B = 0000, lt = 0, gt = 1, eq = 0
# A = 0011, B = 0000, lt = 0, gt = 1, eq = 0
# A = 0100, B = 0000, lt = 0, gt = 1, eq = 0
# A = 0101, B = 0000, lt = 0, gt = 1, eq = 0
# A = 0110, B = 0000, lt = 0, gt = 1, eq = 0
# A = 0111, B = 0000, lt = 0, gt = 1, eq = 0
# A = 1000, B = 0000, lt = 0, gt = 1, eq = 0
# A = 1001, B = 0000, lt = 0, gt = 1, eq = 0
# A = 1010, B = 0000, lt = 0, gt = 1, eq = 0
# A = 1011, B = 0000, lt = 0, gt = 1, eq = 0
# A = 1100, B = 0000, lt = 0, gt = 1, eq = 0
# A = 1101, B = 0000, lt = 0, gt = 1, eq = 0
# A = 1110, B = 0000, lt = 0, gt = 1, eq = 0
# A = 1111, B = 0000, lt = 0, gt = 1, eq = 0
# A = 0000, B = 0000, lt = 0, gt = 0, eq = 1
# A = 0001, B = 0001, lt = 0, gt = 0, eq = 1
# A = 0010, B = 0010, lt = 0, gt = 0, eq = 1
# A = 0011, B = 0011, lt = 0, gt = 0, eq = 1
# A = 0100, B = 0100, lt = 0, gt = 0, eq = 1
# A = 0101, B = 0101, lt = 0, gt = 0, eq = 1
# A = 0110, B = 0110, lt = 0, gt = 0, eq = 1
# A = 0111, B = 0111, lt = 0, gt = 0, eq = 1
# A = 1000, B = 1000, lt = 0, gt = 0, eq = 1
# A = 1001, B = 1001, lt = 0, gt = 0, eq = 1
# A = 1010, B = 1010, lt = 0, gt = 0, eq = 1
# A = 1011, B = 1011, lt = 0, gt = 0, eq = 1
# A = 1100, B = 1100, lt = 0, gt = 0, eq = 1
# A = 1101, B = 1101, lt = 0, gt = 0, eq = 1
# A = 1110, B = 1110, lt = 0, gt = 0, eq = 1
# A = 1111, B = 1111, lt = 0, gt = 0, eq = 1
# ** Note: $stop    : C:/Users/ideapad 5/Desktop/E3/tb.v(90)
#    Time: 630 ps  Iteration: 0  Instance: /tb
# Break in Module tb at C:/Users/ideapad 5/Desktop/E3/tb.v line 90
# Compile of OneBitComparator.v was successful.
# Compile of FourBitComparator.v was successful.
# Compile of tb.v was successful.
# 3 compiles, 0 failed with no errors.
restart
# ** Note: (vsim-12125) Error and warning message counts have been reset to '0' because of 'restart'.
# Loading work.tb
# Loading work.FourBitComparator
# Loading work.OneBitComparator
run -all
# A = 0000, B = 0000, lt = 0, gt = 0, eq = 1
# A = 0001, B = 0000, lt = 0, gt = 1, eq = 0
# A = 0001, B = 0001, lt = 0, gt = 0, eq = 1
# A = 0010, B = 0001, lt = 0, gt = 1, eq = 0
# A = 0011, B = 0001, lt = 0, gt = 1, eq = 0
# A = 0100, B = 0001, lt = 0, gt = 1, eq = 0
# A = 0101, B = 0001, lt = 0, gt = 1, eq = 0
# A = 0110, B = 0001, lt = 0, gt = 1, eq = 0
# A = 0111, B = 0001, lt = 0, gt = 1, eq = 0
# A = 1000, B = 0001, lt = 0, gt = 1, eq = 0
# A = 1001, B = 0001, lt = 0, gt = 1, eq = 0
# A = 1010, B = 0001, lt = 0, gt = 1, eq = 0
# A = 1011, B = 0001, lt = 0, gt = 1, eq = 0
# A = 1100, B = 0001, lt = 0, gt = 1, eq = 0
# A = 1101, B = 0001, lt = 0, gt = 1, eq = 0
# A = 1110, B = 0001, lt = 0, gt = 1, eq = 0
# A = 1111, B = 0001, lt = 0, gt = 1, eq = 0
# A = 0000, B = 0001, lt = 1, gt = 0, eq = 0
# A = 0000, B = 0010, lt = 1, gt = 0, eq = 0
# A = 0000, B = 0011, lt = 1, gt = 0, eq = 0
# A = 0000, B = 0100, lt = 1, gt = 0, eq = 0
# A = 0000, B = 0101, lt = 1, gt = 0, eq = 0
# A = 0000, B = 0110, lt = 1, gt = 0, eq = 0
# A = 0000, B = 0111, lt = 1, gt = 0, eq = 0
# A = 0000, B = 1000, lt = 1, gt = 0, eq = 0
# A = 0000, B = 1001, lt = 1, gt = 0, eq = 0
# A = 0000, B = 1010, lt = 1, gt = 0, eq = 0
# A = 0000, B = 1011, lt = 1, gt = 0, eq = 0
# A = 0000, B = 1100, lt = 1, gt = 0, eq = 0
# A = 0000, B = 1101, lt = 1, gt = 0, eq = 0
# A = 0000, B = 1110, lt = 1, gt = 0, eq = 0
# A = 0000, B = 1111, lt = 1, gt = 0, eq = 0
# A = 0001, B = 0000, lt = 0, gt = 1, eq = 0
# A = 0010, B = 0000, lt = 0, gt = 1, eq = 0
# A = 0011, B = 0000, lt = 0, gt = 1, eq = 0
# A = 0100, B = 0000, lt = 0, gt = 1, eq = 0
# A = 0101, B = 0000, lt = 0, gt = 1, eq = 0
# A = 0110, B = 0000, lt = 0, gt = 1, eq = 0
# A = 0111, B = 0000, lt = 0, gt = 1, eq = 0
# A = 1000, B = 0000, lt = 0, gt = 1, eq = 0
# A = 1001, B = 0000, lt = 0, gt = 1, eq = 0
# A = 1010, B = 0000, lt = 0, gt = 1, eq = 0
# A = 1011, B = 0000, lt = 0, gt = 1, eq = 0
# A = 1100, B = 0000, lt = 0, gt = 1, eq = 0
# A = 1101, B = 0000, lt = 0, gt = 1, eq = 0
# A = 1110, B = 0000, lt = 0, gt = 1, eq = 0
# A = 1111, B = 0000, lt = 0, gt = 1, eq = 0
# A = 0000, B = 0000, lt = 0, gt = 0, eq = 1
# A = 0001, B = 0001, lt = 0, gt = 0, eq = 1
# A = 0010, B = 0010, lt = 0, gt = 0, eq = 1
# A = 0011, B = 0011, lt = 0, gt = 0, eq = 1
# A = 0100, B = 0100, lt = 0, gt = 0, eq = 1
# A = 0101, B = 0101, lt = 0, gt = 0, eq = 1
# A = 0110, B = 0110, lt = 0, gt = 0, eq = 1
# A = 0111, B = 0111, lt = 0, gt = 0, eq = 1
# A = 1000, B = 1000, lt = 0, gt = 0, eq = 1
# A = 1001, B = 1001, lt = 0, gt = 0, eq = 1
# A = 1010, B = 1010, lt = 0, gt = 0, eq = 1
# A = 1011, B = 1011, lt = 0, gt = 0, eq = 1
# A = 1100, B = 1100, lt = 0, gt = 0, eq = 1
# A = 1101, B = 1101, lt = 0, gt = 0, eq = 1
# A = 1110, B = 1110, lt = 0, gt = 0, eq = 1
# A = 1111, B = 1111, lt = 0, gt = 0, eq = 1
# ** Note: $stop    : C:/Users/ideapad 5/Desktop/E3/tb.v(90)
#    Time: 630 ps  Iteration: 0  Instance: /tb
# Break in Module tb at C:/Users/ideapad 5/Desktop/E3/tb.v line 90
quit -sim
# End time: 11:32:00 on Jul 15,2024, Elapsed time: 0:41:33
# Errors: 0, Warnings: 1
