DSD_LAB_E2/E2/simulation/qsim/waiting_room.msim.vcd
$comment
	File created using the following command:
		vcd file waiting_room.msim.vcd -direction
$end
$date
	Mon Jul 08 17:28:35 2024
$end
$version
	ModelSim Version 10.1d
$end
$timescale
	1ps
$end
$scope module waitingRoom_vlg_vec_tst $end
$var reg 1 ! clk $end
$var reg 1 " clr $end
$var reg 1 # Ent $end
$var reg 1 $ IN $end
$var reg 1 % OUT $end
$var reg 1 & set $end
$var reg 1 ' T $end
$var wire 1 ( A [3] $end
$var wire 1 ) A [2] $end
$var wire 1 * A [1] $end
$var wire 1 + A [0] $end
$var wire 1 , Close $end
$var wire 1 - Open $end
$var wire 1 . sampler $end
$scope module i1 $end
$var wire 1 / gnd $end
$var wire 1 0 vcc $end
$var wire 1 1 unknown $end
$var tri1 1 2 devclrn $end
$var tri1 1 3 devpor $end
$var tri1 1 4 devoe $end
$var wire 1 5 Open~output_o $end
$var wire 1 6 Close~output_o $end
$var wire 1 7 A[3]~output_o $end
$var wire 1 8 A[2]~output_o $end
$var wire 1 9 A[1]~output_o $end
$var wire 1 : A[0]~output_o $end
$var wire 1 ; T~input_o $end
$var wire 1 < IN~input_o $end
$var wire 1 = inst2|inst|inst|inst3~combout $end
$var wire 1 > clr~input_o $end
$var wire 1 ? clk~input_o $end
$var wire 1 @ set~input_o $end
$var wire 1 A inst2|inst28|inst|inst1~1_combout $end
$var wire 1 B inst2|inst|inst|inst1~1_combout $end
$var wire 1 C inst2|inst|inst|inst3~1_combout $end
$var wire 1 D inst2|inst|inst|inst11~1_combout $end
$var wire 1 E OUT~input_o $end
$var wire 1 F inst27~combout $end
$var wire 1 G inst2|inst21|inst2~combout $end
$var wire 1 H inst2|inst21|inst|inst3~combout $end
$var wire 1 I inst2|inst21|inst|inst1~1_combout $end
$var wire 1 J inst2|inst21|inst|inst3~1_combout $end
$var wire 1 K inst2|inst21|inst|inst11~1_combout $end
$var wire 1 L inst2|inst27~0_combout $end
$var wire 1 M inst2|inst22|inst|inst3~combout $end
$var wire 1 N inst2|inst22|inst|inst1~1_combout $end
$var wire 1 O inst2|inst22|inst|inst3~1_combout $end
$var wire 1 P inst2|inst22|inst|inst11~1_combout $end
$var wire 1 Q inst2|inst34~combout $end
$var wire 1 R inst29~combout $end
$var wire 1 S inst2|inst33~0_combout $end
$var wire 1 T inst2|inst28|inst|inst3~combout $end
$var wire 1 U inst2|inst28|inst|inst1~2_combout $end
$var wire 1 V inst2|inst28|inst|inst3~1_combout $end
$var wire 1 W inst2|inst28|inst|inst11~1_combout $end
$var wire 1 X inst2|inst36~combout $end
$var wire 1 Y Ent~input_o $end
$var wire 1 Z inst27~0_combout $end
$upscope $end
$upscope $end
$enddefinitions $end
#0
$dumpvars
0!
0"
1#
1$
1%
0&
1'
0+
0*
0)
0(
1,
1-
x.
0/
10
x1
12
13
14
15
16
07
08
09
0:
1;
1<
0=
0>
0?
0@
0A
0B
0C
1D
1E
0F
0G
0H
0I
0J
1K
1L
0M
0N
0O
1P
0Q
0R
1S
0T
0U
0V
1W
0X
1Y
1Z
$end
#5000
1!
1?
0.
#10000
0!
0?
1.
#15000
1!
1?
0.
#20000
0!
0?
1.
#25000
1!
1?
0.
#30000
0!
0?
1.
#35000
1!
1?
0.
#40000
1"
0#
0$
0%
0!
1>
0Y
0<
0E
0?
1.
1V
1O
1J
1C
1R
0L
1F
0Z
1T
1=
0S
0R
1L
0F
05
0-
0T
0=
1S
#45000
1!
1?
0.
0V
0O
0J
0C
1A
#50000
0!
0?
1.
1V
1O
1J
1C
0A
#55000
1!
1?
0.
0V
0O
0J
0C
1A
#60000
0!
0?
1.
1V
1O
1J
1C
0A
#65000
1!
1?
0.
0V
0O
0J
0C
1A
#70000
0!
0?
1.
1V
1O
1J
1C
0A
#75000
1!
1?
0.
0V
0O
0J
0C
1A
#80000
1#
1$
0!
1Y
1<
0?
1.
1V
1O
1J
1C
0A
1Z
1R
0L
1F
15
1-
1T
1=
0S
0T
#85000
1!
1?
0.
0V
0O
0J
1A
1B
0D
1Q
1G
0=
1:
1+
06
0,
#90000
0!
0?
1.
1V
1O
1J
0A
1H
0B
#95000
1!
1?
0.
0V
0O
0C
1A
1D
1I
0Q
0G
0K
0:
0+
0H
1Q
1G
16
19
1,
1*
1H
06
0,
#100000
0!
0?
1.
1V
1O
1C
0A
1=
0I
#105000
1!
1?
0.
0V
0O
1A
1I
1B
0D
1L
0G
0=
1:
1+
0H
#110000
0!
0?
1.
1V
1O
0A
1M
0I
0B
#115000
1!
1?
0.
0V
0J
0C
1A
1K
1D
1N
0Q
0L
0P
09
0:
0*
0+
1Q
16
18
1,
1)
06
0,
#120000
1%
0#
0$
0!
1E
0Y
0<
0?
1.
1L
0F
1V
1J
1C
0A
0Z
0M
1G
1=
0N
05
0-
1H
#125000
1!
1?
0.
0V
0O
1A
1P
1I
1B
1S
0Q
0K
0D
08
0)
0R
0S
1Q
0L
0=
16
19
1:
1,
1*
1+
1=
1R
06
0,
0=
#130000
0!
0?
1.
1V
1O
0A
0I
0B
#135000
1!
1?
0.
0V
0O
0C
1A
1D
1I
0G
0:
0+
0H
#140000
0!
0?
1.
1V
1O
1C
0A
1=
0I
#145000
1!
1?
0.
0V
0O
0J
1A
1K
1B
1S
0Q
1L
1G
0D
09
0*
0R
0S
1Q
0L
0G
0=
16
1:
1,
1+
1=
1R
06
0,
0=
#150000
0!
0?
1.
1V
1O
1J
0A
0B
#155000
1!
1?
0.
0V
0O
0J
0C
1A
1D
1S
0Q
1L
1G
0:
0+
0R
16
1,
0G
#160000
0%
1#
1$
0!
0E
1Y
1<
0?
1.
1V
1O
1J
1C
0A
1Z
1R
0L
1F
15
1-
1T
1=
0S
0T
#165000
1!
1?
0.
0V
0O
0J
1A
1B
0D
1Q
1G
0=
1:
1+
06
0,
#170000
0!
0?
1.
1V
1O
1J
0A
1H
0B
#175000
1!
1?
0.
0V
0O
0C
1A
1D
1I
0Q
0G
0K
0:
0+
0H
1Q
1G
16
19
1,
1*
1H
06
0,
#180000
0!
0?
1.
1V
1O
1C
0A
1=
0I
#185000
1!
1?
0.
0V
0O
1A
1I
1B
0D
1L
0G
0=
1:
1+
0H
#190000
0!
0?
1.
1V
1O
0A
1M
0I
0B
#195000
1!
1?
0.
0V
0J
0C
1A
1K
1D
1N
0Q
0L
0P
09
0:
0*
0+
1Q
16
18
1,
1)
06
0,
#200000
1%
0!
1E
0?
1.
0R
1L
0F
1V
1J
1C
0A
0N
#205000
1!
1?
0.
0V
0J
0C
1A
1N
#210000
0!
0?
1.
1V
1J
1C
0A
0N
#215000
1!
1?
0.
0V
0J
0C
1A
1N
#220000
0!
0?
1.
1V
1J
1C
0A
0N
#225000
1!
1?
0.
0V
0J
0C
1A
1N
#230000
0!
0?
1.
1V
1J
1C
0A
0N
#235000
1!
1?
0.
0V
0J
0C
1A
1N
#240000
0#
0$
0%
0!
0Y
0<
0E
0?
1.
1R
0L
1F
1V
1J
1C
0A
0Z
1=
0N
0R
1L
0F
05
0-
0=
#245000
1!
1?
0.
0V
0J
0C
1A
1N
#250000
0!
0?
1.
1V
1J
1C
0A
0N
#255000
1!
1?
0.
0V
0J
0C
1A
1N
#260000
0!
0?
1.
1V
1J
1C
0A
0N
#265000
1!
1?
0.
0V
0J
0C
1A
1N
#270000
0!
0?
1.
1V
1J
1C
0A
0N
#275000
1!
1?
0.
0V
0J
0C
1A
1N
#280000
1#
1$
0!
1Y
1<
0?
1.
1V
1J
1C
0A
1Z
0N
1R
0L
1F
15
1-
1=
#285000
1!
1?
0.
0V
0J
1A
1N
1B
0D
1G
0=
1:
1+
#290000
0!
0?
1.
1V
1J
0A
1H
0N
0B
#295000
1!
1?
0.
0V
0C
1A
1D
1N
1I
0G
0K
0:
0+
0H
1G
19
1*
1H
#300000
0!
0?
1.
1V
1C
0A
1=
0N
0I
#305000
1!
1?
0.
0V
1A
1N
1I
1B
0D
1S
1L
0G
0=
1:
1+
0M
0H
#310000
0!
0?
1.
1V
0A
1T
0N
0I
0B
#315000
1!
1?
0.
0O
0J
0C
1A
1P
1K
1D
1U
0S
0Q
0L
0W
08
09
0:
0)
0*
0+
1Q
16
17
1,
1(
06
0,
#320000
0!
0?
1.
1O
1J
1C
0A
1=
0U
#325000
1!
1?
0.
0O
0J
1A
1U
1B
0D
1G
0=
1:
1+
#330000
0!
0?
1.
1O
1J
0A
1H
0U
0B
#335000
1!
1?
0.
0O
0C
1A
1D
1U
1I
0G
0K
0:
0+
0H
1G
19
1*
1H
#340000
0!
0?
1.
1O
1C
0A
1=
0U
0I
#345000
1!
1?
0.
0O
1A
1U
1I
1B
0D
1L
0G
0=
1:
1+
0H
#350000
0!
0?
1.
1O
0A
1M
0U
0I
0B
#355000
1!
1?
0.
0J
0C
1A
1K
1D
1U
1N
0L
0P
09
0:
0*
0+
18
1)
#360000
1%
0!
1E
0?
1.
0R
1L
0F
1J
1C
0A
0U
0N
#365000
1!
1?
0.
0J
0C
1A
1U
1N
#370000
0!
0?
1.
1J
1C
0A
0U
0N
#375000
1!
1?
0.
0J
0C
1A
1U
1N
#380000
0!
0?
1.
1J
1C
0A
0U
0N
#385000
1!
1?
0.
0J
0C
1A
1U
1N
#390000
0!
0?
1.
1J
1C
0A
0U
0N
#395000
1!
1?
0.
0J
0C
1A
1U
1N
#400000
0%
0!
0E
0?
1.
1R
0L
1F
1J
1C
0A
1=
0U
0N
#405000
1!
1?
0.
0J
1A
1U
1N
1B
0D
1G
0=
1:
1+
#410000
0!
0?
1.
1J
0A
1H
0U
0N
0B
#415000
1!
1?
0.
0C
1A
1D
1U
1N
1I
0G
0K
0:
0+
0H
1G
19
1*
1H
#420000
0'
0!
0;
0?
1.
1C
0A
0Z
1=
0U
0N
0I
0R
0F
05
0-
0=
#425000
1!
1?
0.
0C
1A
1U
1N
1I
#430000
0!
0?
1.
1C
0A
0U
0N
0I
#435000
1!
1?
0.
0C
1A
1U
1N
1I
#440000
0!
0?
1.
1C
0A
0U
0N
0I
#445000
1!
1?
0.
0C
1A
1U
1N
1I
#450000
0!
0?
1.
1C
0A
0U
0N
0I
#455000
1!
1?
0.
0C
1A
1U
1N
1I
#460000
0!
0?
1.
1C
0A
0U
0N
0I
#465000
1!
1?
0.
0C
1A
1U
1N
1I
#470000
0!
0?
1.
1C
0A
0U
0N
0I
#475000
1!
1?
0.
0C
1A
1U
1N
1I
#480000
0!
0?
1.
1C
0A
0U
0N
0I
#485000
1!
1?
0.
0C
1A
1U
1N
1I
#490000
0!
0?
1.
1C
0A
0U
0N
0I
#495000
1!
1?
0.
0C
1A
1U
1N
1I
#500000
1'
0!
1;
0?
1.
1C
0A
1Z
0U
0N
0I
1R
1F
15
1-
1=
#505000
1!
1?
0.
1A
1U
1N
1I
1B
0D
1X
1S
1L
0G
0=
1:
1+
0T
0M
0H
0Z
0R
0L
0F
05
0-
1T
1M
1G
1=
0S
1H
#510000
0!
0?
1.
0A
0U
0N
0I
0B
#515000
1!
1?
0.
1A
1U
1N
1I
1B
#520000
0!
0?
1.
0A
0U
0N
0I
0B
#525000
1!
1?
0.
1A
1U
1N
1I
1B
#530000
0!
0?
1.
0A
0U
0N
0I
0B
#535000
1!
1?
0.
1A
1U
1N
1I
1B
#540000
0!
0?
1.
0A
0U
0N
0I
0B
#545000
1!
1?
0.
1A
1U
1N
1I
1B
#550000
0!
0?
1.
0A
0U
0N
0I
0B
#555000
1!
1?
0.
1A
1U
1N
1I
1B
#560000
0#
0$
1%
0!
0Y
0<
1E
0?
1.
1R
0A
0=
0U
0N
0I
0B
#565000
1!
1?
0.
0C
1A
1D
1U
1N
1I
0X
0G
0:
0+
0H
#570000
0!
0?
1.
1C
0A
1=
0U
0N
0I
#575000
1!
1?
0.
0J
1A
1K
1U
1N
1B
1L
1G
0D
09
0*
0M
0L
0G
0=
1:
1+
1M
#580000
0!
0?
1.
1J
0A
0U
0N
0B
#585000
1!
1?
0.
0J
0C
1A
1D
1U
1N
1L
1G
0:
0+
0M
#590000
0!
0?
1.
1J
1C
0A
1H
1=
0U
0N
#595000
1!
1?
0.
0O
1A
1P
1U
1I
1B
1S
0K
0D
08
0)
0T
0S
0L
0=
19
1:
1*
1+
1T
#600000
0!
0?
1.
1O
0A
0U
0I
0B
#605000
1!
1?
0.
0O
0C
1A
1D
1U
1I
0G
0:
0+
0H
#610000
0!
0?
1.
1O
1C
0A
1=
0U
0I
#615000
1!
1?
0.
0O
0J
1A
1K
1U
1B
1S
1L
1G
0D
09
0*
0T
0S
0L
0G
0=
1:
1+
1T
#620000
0!
0?
1.
1O
1J
0A
0U
0B
#625000
1!
1?
0.
0O
0J
0C
1A
1D
1U
1S
1L
1G
0:
0+
0T
#630000
0!
0?
1.
1O
1J
1C
0A
1M
1H
1=
0U
#635000
1!
1?
0.
0V
1A
1W
1N
1I
1B
0Q
0P
0K
0D
07
0(
0R
0S
1Q
0M
0L
0=
16
18
19
1:
1,
1)
1*
1+
1M
1=
1R
06
0,
0=
#640000
0%
0!
0E
0?
1.
0R
1V
0A
1=
0N
0I
0B
#645000
1!
1?
0.
0V
1A
1N
1I
1B
#650000
0!
0?
1.
1V
0A
0N
0I
0B
#655000
1!
1?
0.
0V
1A
1N
1I
1B
#660000
0!
0?
1.
1V
0A
0N
0I
0B
#665000
1!
1?
0.
0V
1A
1N
1I
1B
#670000
0!
0?
1.
1V
0A
0N
0I
0B
#675000
1!
1?
0.
0V
1A
1N
1I
1B
#680000
1%
0!
1E
0?
1.
1R
1V
0A
0=
0N
0I
0B
#685000
1!
1?
0.
0V
0C
1A
1D
1N
1I
0G
0:
0+
0H
#690000
0!
0?
1.
1V
1C
0A
1=
0N
0I
#695000
1!
1?
0.
0V
0J
1A
1K
1N
1B
1L
1G
0D
09
0*
0M
0L
0G
0=
1:
1+
1M
#700000
0!
0?
1.
1V
1J
0A
0N
0B
#705000
1!
1?
0.
0V
0J
0C
1A
1D
1N
1L
1G
0:
0+
0M
#710000
0!
0?
1.
1V
1J
1C
0A
1H
1=
0N
#715000
1!
1?
0.
0V
0O
1A
1P
1I
1B
1S
0Q
0K
0D
08
0)
0R
0S
1Q
0L
0=
16
19
1:
1,
1*
1+
1=
1R
06
0,
0=
#720000
0!
0?
1.
1V
1O
0A
0I
0B
#725000
1!
1?
0.
0V
0O
0C
1A
1D
1I
0G
0:
0+
0H
#730000
0!
0?
1.
1V
1O
1C
0A
1=
0I
#735000
1!
1?
0.
0V
0O
0J
1A
1K
1B
1S
0Q
1L
1G
0D
09
0*
0R
0S
1Q
0L
0G
0=
16
1:
1,
1+
1=
1R
06
0,
0=
#740000
0!
0?
1.
1V
1O
1J
0A
0B
#745000
1!
1?
0.
0V
0O
0J
0C
1A
1D
1S
0Q
1L
1G
0:
0+
0R
16
1,
0G
#750000
0!
0?
1.
1V
1O
1J
1C
0A
#755000
1!
1?
0.
0V
0O
0J
0C
1A
#760000
0!
0?
1.
1V
1O
1J
1C
0A
#765000
1!
1?
0.
0V
0O
0J
0C
1A
#770000
0!
0?
1.
1V
1O
1J
1C
0A
#775000
1!
1?
0.
0V
0O
0J
0C
1A
#780000
0!
0?
1.
1V
1O
1J
1C
0A
#785000
1!
1?
0.
0V
0O
0J
0C
1A
#790000
0!
0?
1.
1V
1O
1J
1C
0A
#795000
1!
1?
0.
0V
0O
0J
0C
1A
#800000
1#
1$
0%
0!
1Y
1<
0E
0?
1.
1V
1O
1J
1C
0A
1Z
1R
0L
1F
15
1-
1T
1=
0S
0T
#805000
1!
1?
0.
0V
0O
0J
1A
1B
0D
1Q
1G
0=
1:
1+
06
0,
#810000
0!
0?
1.
1V
1O
1J
0A
1H
0B
#815000
1!
1?
0.
0V
0O
0C
1A
1D
1I
0Q
0G
0K
0:
0+
0H
1Q
1G
16
19
1,
1*
1H
06
0,
#820000
0!
0?
1.
1V
1O
1C
0A
1=
0I
#825000
1!
1?
0.
0V
0O
1A
1I
1B
0D
1L
0G
0=
1:
1+
0H
#830000
0!
0?
1.
1V
1O
0A
1M
0I
0B
#835000
1!
1?
0.
0V
0J
0C
1A
1K
1D
1N
0Q
0L
0P
09
0:
0*
0+
1Q
16
18
1,
1)
06
0,
#840000
0!
0?
1.
1V
1J
1C
0A
1=
0N
#845000
1!
1?
0.
0V
0J
1A
1N
1B
0D
1G
0=
1:
1+
#850000
0!
0?
1.
1V
1J
0A
1H
0N
0B
#855000
1!
1?
0.
0V
0C
1A
1D
1N
1I
0G
0K
0:
0+
0H
1G
19
1*
1H
#860000
0!
0?
1.
1V
1C
0A
1=
0N
0I
#865000
1!
1?
0.
0V
1A
1N
1I
1B
0D
1S
1L
0G
0=
1:
1+
0M
0H
#870000
0!
0?
1.
1V
0A
1T
0N
0I
0B
#875000
1!
1?
0.
0O
0J
0C
1A
1P
1K
1D
1U
0S
0Q
0L
0W
08
09
0:
0)
0*
0+
1Q
16
17
1,
1(
06
0,
#880000
1%
0!
1E
0?
1.
0R
1L
0F
1O
1J
1C
0A
1S
0U
#885000
1!
1?
0.
0O
0J
0C
1A
1U
#890000
0"
0!
0>
0?
1.
0V
0A
0T
0U
1W
0Q
07
0(
16
1,
#895000
1!
1?
0.
#900000
0!
0?
1.
#905000
1!
1?
0.
#910000
0!
0?
1.
#915000
1!
1?
0.
#920000
0%
0!
0E
0?
1.
1R
0L
1F
0S
#925000
1!
1?
0.
#930000
0!
0?
1.
#935000
1!
1?
0.
#940000
0!
0?
1.
#945000
1!
1?
0.
#950000
0!
0?
1.
#955000
1!
1?
0.
#960000
1&
0#
0$
1%
0!
1@
0Y
0<
1E
0?
1.
0W
0P
0K
0D
0R
1L
0F
0Z
1X
1Q
0L
1G
17
18
19
1:
05
1(
1)
1*
1+
0-
1R
06
0,
#965000
1!
1?
0.
#970000
1"
0!
1>
0?
1.
1V
1O
1J
1C
1T
1M
1H
#975000
1!
1?
0.
0C
1A
1U
1N
1I
1B
1C
#980000
0!
0?
1.
0A
0U
0N
0I
0B
#985000
1!
1?
0.
0C
1A
1U
1N
1I
1B
1C
#990000
0!
0?
1.
0A
0U
0N
0I
0B
#995000
1!
1?
0.
0C
1A
1U
1N
1I
1B
1C
